<?xml version="1.0" encoding="utf-8"?>
<!-- Generated by IcoMoon.io -->
<!DOCTYPE svg PUBLIC "-//W3C//DTD SVG 1.1//EN" "http://www.w3.org/Graphics/SVG/1.1/DTD/svg11.dtd">
<svg version="1.1" xmlns="http://www.w3.org/2000/svg" xmlns:xlink="http://www.w3.org/1999/xlink" width="1210" height="1024" viewBox="0 0 1210 1024">
<g id="icomoon-ignore">
</g>
<path fill="none" stroke="#000" stroke-width="155.8125" stroke-miterlimit="50" stroke-linecap="butt" stroke-linejoin="miter" d="M134.25 504.48l383.758 400.231 557.742-785.423"></path>
</svg>
