<?xml version="1.0" encoding="utf-8"?>
<!-- Generated by IcoMoon.io -->
<!DOCTYPE svg PUBLIC "-//W3C//DTD SVG 1.1//EN" "http://www.w3.org/Graphics/SVG/1.1/DTD/svg11.dtd">
<svg version="1.1" xmlns="http://www.w3.org/2000/svg" xmlns:xlink="http://www.w3.org/1999/xlink" width="819" height="1024" viewBox="0 0 819 1024">
<g id="icomoon-ignore">
</g>
<path fill="none" stroke="#000" stroke-width="36.4089" stroke-miterlimit="10" stroke-linecap="round" stroke-linejoin="round" d="M756.817 913.952c0 43.709-34.343 78.048-78.048 78.048h-521.368c-43.709 0-78.048-34.343-78.048-78.048v-437.072c0-43.709 34.343-78.048 78.048-78.048h522.928c43.709 0 78.048 34.343 78.048 78.048v437.072zM396.233 375.413s-335.611-104.586-162.34-224.782c171.706-118.635 162.34 224.782 162.34 224.782zM447.745 372.29s309.074-96.781 149.851-206.049c-159.219-109.27-149.851 206.049-149.851 206.049zM418.086 414.438v560.391"></path>
</svg>
